[p.w3layouts.com/demos_new/24-12-2016/real_plantation-demo_Free/223572333/web/index.html]
[backblue.gif]
[fade.gif]
[index.html]
[p.w3layouts.com/demos_new/24-12-2016/real_plantation-demo_Free/223572333/web/css/bootstrap.css]
[p.w3layouts.com/demos_new/24-12-2016/real_plantation-demo_Free/223572333/web/css/style.css]
[p.w3layouts.com/demos_new/24-12-2016/real_plantation-demo_Free/223572333/web/js/jquery-2.1.4.min.js]
[p.w3layouts.com/demos_new/24-12-2016/real_plantation-demo_Free/223572333/web/css/animate.css]
[p.w3layouts.com/demos_new/24-12-2016/real_plantation-demo_Free/223572333/web/js/wow.min.js]
[p.w3layouts.com/demos_new/24-12-2016/real_plantation-demo_Free/223572333/web/js/responsiveslides.min.js]
[p.w3layouts.com/demos_new/24-12-2016/real_plantation-demo_Free/223572333/web/js/move-top.js]
[ajax.googleapis.com/ajax/libs/jquery/1.10.2/jquery.min.js]
[p.w3layouts.com/demos_new/24-12-2016/real_plantation-demo_Free/223572333/web/js/easing.js]
[vdo.ai/core/w3layouts/vdo.ai.js]
[www.google-analytics.com/analytics.js]
[m.servedby-buysellads.com/monetization.js]
[p.w3layouts.com/demos_new/24-12-2016/real_plantation-demo_Free/223572333/web/images/logo.png]
[p.w3layouts.com/demos_new/24-12-2016/real_plantation-demo_Free/223572333/web/services.html]
[p.w3layouts.com/demos_new/24-12-2016/real_plantation-demo_Free/223572333/web/gallery.html]
[p.w3layouts.com/demos_new/24-12-2016/real_plantation-demo_Free/223572333/web/codes.html]
[p.w3layouts.com/demos_new/24-12-2016/real_plantation-demo_Free/223572333/web/icons.html]
[p.w3layouts.com/demos_new/24-12-2016/real_plantation-demo_Free/223572333/web/contact.html]
[p.w3layouts.com/demos_new/24-12-2016/real_plantation-demo_Free/223572333/web/images/icon1.png]
[p.w3layouts.com/demos_new/24-12-2016/real_plantation-demo_Free/223572333/web/images/icon2.png]
[p.w3layouts.com/demos_new/24-12-2016/real_plantation-demo_Free/223572333/web/images/icon3.png]
[p.w3layouts.com/demos_new/24-12-2016/real_plantation-demo_Free/223572333/web/images/pic6.jpg]
[p.w3layouts.com/demos_new/24-12-2016/real_plantation-demo_Free/223572333/web/images/pic7.jpg]
[p.w3layouts.com/demos_new/24-12-2016/real_plantation-demo_Free/223572333/web/images/pic3.jpg]
[p.w3layouts.com/demos_new/24-12-2016/real_plantation-demo_Free/223572333/web/images/pic8.jpg]
[p.w3layouts.com/demos_new/24-12-2016/real_plantation-demo_Free/223572333/web/images/pic9.jpg]
[p.w3layouts.com/demos_new/24-12-2016/real_plantation-demo_Free/223572333/web/images/pic10.jpg]
[p.w3layouts.com/demos_new/24-12-2016/real_plantation-demo_Free/223572333/web/index.html]
[p.w3layouts.com/demos_new/24-12-2016/real_plantation-demo_Free/223572333/web/js/bootstrap-3.1.1.min.js]
[p.w3layouts.com/demos_new/24-12-2016/real_plantation-demo_Free/223572333/web/fonts/glyphicons-halflings-regular.eot]
[p.w3layouts.com/demos_new/24-12-2016/real_plantation-demo_Free/223572333/web/fonts/glyphicons-halflings-regulard41d.eot]
[p.w3layouts.com/demos_new/24-12-2016/real_plantation-demo_Free/223572333/web/fonts/glyphicons-halflings-regular.woff2]
[p.w3layouts.com/demos_new/24-12-2016/real_plantation-demo_Free/223572333/web/fonts/glyphicons-halflings-regular.woff]
[p.w3layouts.com/demos_new/24-12-2016/real_plantation-demo_Free/223572333/web/fonts/glyphicons-halflings-regular.ttf]
[p.w3layouts.com/demos_new/24-12-2016/real_plantation-demo_Free/223572333/web/fonts/glyphicons-halflings-regular.svg]
[p.w3layouts.com/demos_new/24-12-2016/real_plantation-demo_Free/223572333/web/css/bootstrap.css]
[p.w3layouts.com/demos_new/24-12-2016/real_plantation-demo_Free/223572333/web/images/arr.png]
[p.w3layouts.com/demos_new/24-12-2016/real_plantation-demo_Free/223572333/web/images/pic1.jpg]
[p.w3layouts.com/demos_new/24-12-2016/real_plantation-demo_Free/223572333/web/images/social2.png]
[p.w3layouts.com/demos_new/24-12-2016/real_plantation-demo_Free/223572333/web/images/themes.png]
[p.w3layouts.com/demos_new/24-12-2016/real_plantation-demo_Free/223572333/web/images/img-resources.png]
[p.w3layouts.com/demos_new/24-12-2016/real_plantation-demo_Free/223572333/web/images/2.png]
[p.w3layouts.com/demos_new/24-12-2016/real_plantation-demo_Free/223572333/web/images/key2.png]
[p.w3layouts.com/demos_new/24-12-2016/real_plantation-demo_Free/223572333/web/css/style.css]
[p.w3layouts.com/demos_new/24-12-2016/real_plantation-demo_Free/223572333/web/css/animate.css]
[p.w3layouts.com/demos_new/24-12-2016/real_plantation-demo_Free/223572333/web/images/team1.jpg]
[p.w3layouts.com/demos_new/24-12-2016/real_plantation-demo_Free/223572333/web/images/team2.jpg]
[p.w3layouts.com/demos_new/24-12-2016/real_plantation-demo_Free/223572333/web/images/team3.jpg]
[p.w3layouts.com/demos_new/24-12-2016/real_plantation-demo_Free/223572333/web/services.html]
[p.w3layouts.com/demos_new/24-12-2016/real_plantation-demo_Free/223572333/web/css/swipebox.css]
[p.w3layouts.com/demos_new/24-12-2016/real_plantation-demo_Free/223572333/web/js/jquery.swipebox.min.js]
[p.w3layouts.com/demos_new/24-12-2016/real_plantation-demo_Free/223572333/web/images/g1.jpg]
[p.w3layouts.com/demos_new/24-12-2016/real_plantation-demo_Free/223572333/web/images/g2.jpg]
[p.w3layouts.com/demos_new/24-12-2016/real_plantation-demo_Free/223572333/web/images/g3.jpg]
[p.w3layouts.com/demos_new/24-12-2016/real_plantation-demo_Free/223572333/web/images/g4.jpg]
[p.w3layouts.com/demos_new/24-12-2016/real_plantation-demo_Free/223572333/web/images/g5.jpg]
[p.w3layouts.com/demos_new/24-12-2016/real_plantation-demo_Free/223572333/web/images/g6.jpg]
[p.w3layouts.com/demos_new/24-12-2016/real_plantation-demo_Free/223572333/web/images/g7.jpg]
[p.w3layouts.com/demos_new/24-12-2016/real_plantation-demo_Free/223572333/web/images/g8.jpg]
[p.w3layouts.com/demos_new/24-12-2016/real_plantation-demo_Free/223572333/web/gallery.html]
[p.w3layouts.com/demos_new/24-12-2016/real_plantation-demo_Free/223572333/web/codes.html]
[p.w3layouts.com/demos_new/24-12-2016/real_plantation-demo_Free/223572333/web/icons.html]
[p.w3layouts.com/demos_new/24-12-2016/real_plantation-demo_Free/223572333/web/css/font-awesome.min.css]
[p.w3layouts.com/demos_new/24-12-2016/real_plantation-demo_Free/223572333/web/contact.html]
[p.w3layouts.com/demos_new/24-12-2016/real_plantation-demo_Free/223572333/web/fonts/glyphicons-halflings-regular.html]
[p.w3layouts.com/demos_new/24-12-2016/real_plantation-demo_Free/223572333/web/images/themes.html]
[p.w3layouts.com/demos_new/24-12-2016/real_plantation-demo_Free/223572333/web/images/img-resources.html]
[p.w3layouts.com/demos_new/24-12-2016/real_plantation-demo_Free/223572333/web/images/2.html]
[p.w3layouts.com/demos_new/24-12-2016/real_plantation-demo_Free/223572333/web/js/easyResponsiveTabs.js]
[p.w3layouts.com/demos_new/24-12-2016/real_plantation-demo_Free/223572333/web/images/loader.gif]
[p.w3layouts.com/demos_new/24-12-2016/real_plantation-demo_Free/223572333/web/images/icons.png]
[p.w3layouts.com/demos_new/24-12-2016/real_plantation-demo_Free/223572333/web/css/swipebox.css]
[p.w3layouts.com/demos_new/24-12-2016/real_plantation-demo_Free/223572333/web/fonts/fontawesome-webfont5b62.eot]
[p.w3layouts.com/demos_new/24-12-2016/real_plantation-demo_Free/223572333/web/fonts/fontawesome-webfont5b62.woff2]
[p.w3layouts.com/demos_new/24-12-2016/real_plantation-demo_Free/223572333/web/fonts/fontawesome-webfont5b62.woff]
[p.w3layouts.com/demos_new/24-12-2016/real_plantation-demo_Free/223572333/web/fonts/fontawesome-webfontd41d.eot]
[p.w3layouts.com/demos_new/24-12-2016/real_plantation-demo_Free/223572333/web/fonts/fontawesome-webfont5b62.ttf]
[p.w3layouts.com/demos_new/24-12-2016/real_plantation-demo_Free/223572333/web/fonts/fontawesome-webfont5b62.svg]
[p.w3layouts.com/demos_new/24-12-2016/real_plantation-demo_Free/223572333/web/css/font-awesome.min.css]
[p.w3layouts.com/demos_new/24-12-2016/real_plantation-demo_Free/223572333/web/images/loader.html]
[p.w3layouts.com/demos_new/24-12-2016/real_plantation-demo_Free/223572333/web/fonts/fontawesome-webfont5b62.html]
